Using Python with R
…
# R analysis - Filter data

```r
library(dplyr)

raw_filtered <- raw %>%
  dplyr::select(year, artist.inverted, track, time, date.entered,
                x1st.week:x73rd.week) %>%
  dplyr::rename(artist = artist.inverted)
raw_filtered
```

```
## # A tibble: 317 x 78
##     year artist track time  date.entered x1st.week x2nd.week x3rd.week
##    <dbl> <chr>  <chr> <tim> <date>           <dbl>     <dbl>     <dbl>
##  1  2000 Desti… Inde… 03:38 2000-09-23          78        63        49
##  2  2000 Santa… Mari… 04:18 2000-02-12          15         8         6
##  3  2000 Savag… I Kn… 04:07 1999-10-23          71        48        43
##  4  2000 Madon… Music 03:45 2000-08-12          41        23        18
##  5  2000 Aguil… Come… 03:38 2000-08-05          57        47        45
##  6  2000 Janet  Does… 04:17 2000-06-17          59        52        43
##  7  2000 Desti… Say … 04:31 1999-12-25          83        83        44
##  8  2000 Igles… Be W… 03:36 2000-04-01          63        45        34
##  9  2000 Sisqo  Inco… 03:52 2000-06-24          77        66        61
## 10  2000 Lones… Amaz… 04:25 1999-06-05          81        54        44
## # … with 307 more rows, and 70 more variables: x4th.week <dbl>,
## #   x5th.week <dbl>, x6th.week <dbl>, x7th.week <dbl>, x8th.week <dbl>,
## #   x9th.week <dbl>, x10th.week <dbl>, x11th.week <dbl>, x12th.week <dbl>,
## #   x13th.week <dbl>, x14th.week <dbl>, x15th.week <dbl>,
## #   x16th.week <dbl>, x17th.week <dbl>, x18th.week <dbl>,
## #   x19th.week <dbl>, x20th.week <dbl>, x21st.week <dbl>,
## #   x22nd.week <dbl>, x23rd.week <dbl>, x24th.week <dbl>,
## #   x25th.week <dbl>, x26th.week <dbl>, x27th.week <dbl>,
## #   x28th.week <dbl>, x29th.week <dbl>, x30th.week <dbl>,
…
# R analysis - Tidy data

```r
library(tidyr)

raw_tidy <- raw_filtered %>%
  tidyr::pivot_longer(cols = tidyselect::starts_with('x'),
                      names_to = "week",
                      values_to = "rank")
raw_tidy
```

```
## # A tibble: 23,141 x 7
##     year artist        track              time  date.entered week      rank
##    <dbl> <chr>         <chr>              <tim> <date>       <chr>    <dbl>
##  1  2000 Destiny's Ch… Independent Women… 03:38 2000-09-23   x1st.we…    78
##  2  2000 Destiny's Ch… Independent Women… 03:38 2000-09-23   x2nd.we…    63
##  3  2000 Destiny's Ch… Independent Women… 03:38 2000-09-23   x3rd.we…    49
##  4  2000 Destiny's Ch… Independent Women… 03:38 2000-09-23   x4th.we…    33
##  5  2000 Destiny's Ch… Independent Women… 03:38 2000-09-23   x5th.we…    23
##  6  2000 Destiny's Ch… Independent Women… 03:38 2000-09-23   x6th.we…    15
##  7  2000 Destiny's Ch… Independent Women… 03:38 2000-09-23   x7th.we…     7
##  8  2000 Destiny's Ch… Independent Women… 03:38 2000-09-23   x8th.we…     5
##  9  2000 Destiny's Ch… Independent Women… 03:38 2000-09-23   x9th.we…     1
## 10  2000 Destiny's Ch… Independent Women… 03:38 2000-09-23   x10th.w…     1
## # … with 23,131 more rows
```
…
billboard_clean <- raw_tidy %>%
  dplyr::mutate(
    week = purrr::map_int(
      week,
      #function(x){as.integer(stringr::str_extract(x, '\\d+'))}
      ~ as.integer(stringr::str_extract(., "\\d+"))
    )
  )
billboard_clean
```

```
## # A tibble: 23,141 x 7
##     year artist         track                time  date.entered  week  rank
##    <dbl> <chr>          <chr>                <tim> <date>       <int> <dbl>
##  1  2000 Destiny's Chi… Independent Women P… 03:38 2000-09-23       1    78
##  2  2000 Destiny's Chi… Independent Women P… 03:38 2000-09-23       2    63
##  3  2000 Destiny's Chi… Independent Women P… 03:38 2000-09-23       3    49
##  4  2000 Destiny's Chi… Independent Women P… 03:38 2000-09-23       4    33
##  5  2000 Destiny's Chi… Independent Women P… 03:38 2000-09-23       5    23
##  6  2000 Destiny's Chi… Independent Women P… 03:38 2000-09-23       6    15
##  7  2000 Destiny's Chi… Independent Women P… 03:38 2000-09-23       7     7
##  8  2000 Destiny's Chi… Independent Women P… 03:38 2000-09-23       8     5
##  9  2000 Destiny's Chi… Independent Women P… 03:38 2000-09-23       9     1
## 10  2000 Destiny's Chi… Independent Women P… 03:38 2000-09-23      10     1
## # … with 23,131 more rows
```
…
# R -- Get data

```r
sklearn_datasets = reticulate::import_from_path("sklearn.datasets")
cancer = sklearn_datasets$load_breast_cancer()

library(tibble)
cancer_df <- tibble::as_tibble(cancer$data)
names(cancer_df) <- cancer$feature_names
cancer_df$target <- cancer$target
cancer_df
```

```
## # A tibble: 569 x 31
##    `mean radius` `mean texture` `mean perimeter` `mean area`
##            <dbl>          <dbl>            <dbl>       <dbl>
##  1          18.0           10.4            123.        1001 
##  2          20.6           17.8            133.        1326 
##  3          19.7           21.2            130         1203 
##  4          11.4           20.4             77.6        386.
##  5          20.3           14.3            135.        1297 
##  6          12.4           15.7             82.6        477.
##  7          18.2           20.0            120.        1040 
##  8          13.7           20.8             90.2        578.
##  9          13             21.8             87.5        520.
## 10          12.5           24.0             84.0        476.
## # … with 559 more rows, and 27 more variables: `mean smoothness` <dbl>,
## #   `mean compactness` <dbl>, `mean concavity` <dbl>, `mean concave
## #   points` <dbl>, `mean symmetry` <dbl>, `mean fractal dimension` <dbl>,
## #   `radius error` <dbl>, `texture error` <dbl>, `perimeter error` <dbl>,
## #   `area error` <dbl>, `smoothness error` <dbl>, `compactness
## #   error` <dbl>, `concavity error` <dbl>, `concave points error` <dbl>,
## #   `symmetry error` <dbl>, `fractal dimension error` <dbl>, `worst
## #   radius` <dbl>, `worst texture` <dbl>, `worst perimeter` <dbl>, `worst
## #   area` <dbl>, `worst smoothness` <dbl>, `worst compactness` <dbl>,
…
